…
<img src="README_files/figure-markdown_github/unnamed-chunk-4-1.png" width="864" />

``` r
# How many satellites launched per source (country) [top 20]

count(satcat_df, source_full_name, sort=TRUE) %>%
  mutate(ct=scales::comma(n), pct=scales::percent(n/sum(n))) %>%
  select(-n) %>%
  print(n=20)
```

    ## # A tibble: 87 × 3
    ##                                                     source_full_name     ct   pct
    ##                                                                <chr>  <chr> <chr>
    ## 1                   Commonwealth of Independent States (former USSR) 21,413 51.1%
    ## 2                                                      United States 11,731 28.0%
    ## 3                                         People's Republic of China  5,081 12.1%
    ## 4                                                             France  1,250  3.0%
    ## 5                                                              Japan    529  1.3%
    ## 6                                                              India    520  1.2%
    ## 7                                              European Space Agency    171  0.4%
    ## 8                                        International Space Station    104  0.2%
    ## 9                                                       China/Brazil     91  0.2%
    ## 10 International TelecommunicationsSatellite Organization (INTELSAT)     88  0.2%
    ## 11                                                        Globalstar     86  0.2%
    ## 12                                                           Germany     68  0.2%
    ## 13                                                           ORBCOMM     60  0.1%
    ## 14                                                               SES     56  0.1%
    ## 15                                                            Canada     54  0.1%
    ## 16                                                    United Kingdom     54  0.1%
    ## 17      European TelecommunicationsSatellite Organization (EUTELSAT)     52  0.1%
    ## 18                                                             Italy     37  0.1%
    ## 19                                                        Sea Launch     37  0.1%
    ## 20                                                            Israel     26  0.1%
    ## # ... with 67 more rows

``` r
# How many satellites launched per source (country) that are still active? [top 20]

filter(satcat_df, is_active) %>%
  count(source_full_name, sort=TRUE) %>%
  mutate(ct=scales::comma(n), pct=scales::percent(n/sum(n))) %>%
  select(-n) %>%
  print(n=20)
```

    ## # A tibble: 76 × 3
    ##                                                     source_full_name    ct   pct
    ##                                                                <chr> <chr> <chr>
    ## 1                                                      United States   544 34.0%
    ## 2                                         People's Republic of China   193 12.1%
    ## 3                   Commonwealth of Independent States (former USSR)   145  9.1%
    ## 4                                                              Japan    77  4.8%
    ## 5                                                                SES    48  3.0%
    ## 6                                                              India    47  2.9%
    ## 7                                              European Space Agency    44  2.8%
    ## 8                                                            ORBCOMM    42  2.6%
    ## 9  International TelecommunicationsSatellite Organization (INTELSAT)    35  2.2%
    ## 10                                                        Globalstar    34  2.1%
    ## 11      European TelecommunicationsSatellite Organization (EUTELSAT)    33  2.1%
    ## 12                                                            Canada    30  1.9%
    ## 13                                                           Germany    26  1.6%
    ## 14                                                    United Kingdom    21  1.3%
    ## 15                                                            France    20  1.3%
    ## 16                                                             Spain    15  0.9%
    ## 17                                                            Israel    12  0.8%
    ## 18                                                             Italy    12  0.8%
    ## 19                                                      O3b Networks    12  0.8%
    ## 20                                                            Brazil    11  0.7%
    ## # ... with 56 more rows

``` r
# What's the most popular launch site? [top 20]

count(satcat_df, launch_site_full_name, sort=TRUE) %>%
  mutate(ct=scales::comma(n), pct=scales::percent(n/sum(n))) %>%
  select(-n) %>%
  mutate(launch_site_full_name=abbreviate(launch_site_full_name, 80)) %>%
  print(n=20)
```

    ## Warning in abbreviate(c("Tyuratam Missile and Space Center, Kazakhstan (Also known as Baikonur Cosmodrome)", :
    ## abbreviate used with non-ASCII chars

    ## # A tibble: 31 × 3
    ##                                                        launch_site_full_name     ct   pct
    ##                                                                        <chr>  <chr> <chr>
    ## 1    TyuratamMissileandSpaceCenter,Kazakhstan(AlsoknownasBaikonurCosmodrome) 11,173 26.6%
    ## 2                                 Plesetsk Missile and Space Complex, Russia 11,008 26.3%
    ## 3                              Air Force Western Test Range, California, USA  6,933 16.5%
    ## 4                                                  Taiyuan Space Center, PRC  4,362 10.4%
    ## 5                                 Air Force Eastern Test Range, Florida, USA  3,855  9.2%
    ## 6                                  Europe's Spaceport, Kourou, French Guiana  1,697  4.0%
    ## 7   Satish Dhawan Space Centre, India (Formerly Sriharikota Launching Range)    569  1.4%
    ## 8                                               Xichang Launch Facility, PRC    425  1.0%
    ## 9                                                  Jiuquan Space Center, PRC    408  1.0%
    ## 10                            Kapustin Yar Missile and Space Complex, Russia    404  1.0%
    ## 11                                           Tanegashima Space Center, Japan    322  0.8%
    ## 12                                             Wallops Island, Virginia, USA    158  0.4%
    ## 13 UchinouraSpaceCenter(FomerlyKagoshimaSpaceCenter—UniversityofTokyo,Japan)    143  0.3%
    ## 14                                          Dombarovskiy Launch Site, Russia    114  0.3%
    ## 15                                              Sea Launch Platform (mobile)     69  0.2%
    ## 16                                                    Eastern Range Airspace     57  0.1%
    ## 17                                     Hammaguira Space Track Range, Algeria     48  0.1%
    ## 18                                                    Western Range Airspace     48  0.1%
    ## 19                                          Svobodnyy Launch Complex, Russia     20  0.0%
    ## 20                           San Marco Launch Platform, Indian Ocean (Kenya)     17  0.0%
    ## # ... with 11 more rows
``` r
# What's the most popular launch site this century? [top 20]

filter(satcat_df, lubridate::year(launch_date) >= 2000) %>%
  count(launch_site_full_name, sort=TRUE) %>%
  mutate(ct=scales::comma(n), pct=scales::percent(n/sum(n))) %>%
  select(-n) %>%
  mutate(launch_site_full_name=abbreviate(launch_site_full_name, 80)) %>%
  print(n=20)
```

    ## Warning in abbreviate(c("Tyuratam Missile and Space Center, Kazakhstan (Also known as Baikonur Cosmodrome)", :
    ## abbreviate used with non-ASCII chars

    ## # A tibble: 27 × 3
    ##                                                        launch_site_full_name    ct   pct
    ##                                                                        <chr> <chr> <chr>
    ## 1    TyuratamMissileandSpaceCenter,Kazakhstan(AlsoknownasBaikonurCosmodrome) 2,307 34.0%
    ## 2                              Air Force Western Test Range, California, USA   892 13.1%
    ## 3                                 Air Force Eastern Test Range, Florida, USA   630  9.3%
    ## 4   Satish Dhawan Space Centre, India (Formerly Sriharikota Launching Range)   542  8.0%
    ## 5                                  Europe's Spaceport, Kourou, French Guiana   474  7.0%
    ## 6                                               Xichang Launch Facility, PRC   356  5.2%
    ## 7                                 Plesetsk Missile and Space Complex, Russia   346  5.1%
    ## 8                                                  Taiyuan Space Center, PRC   320  4.7%
    ## 9                                                  Jiuquan Space Center, PRC   303  4.5%
    ## 10                                           Tanegashima Space Center, Japan   219  3.2%
    ## 11                                          Dombarovskiy Launch Site, Russia   114  1.7%
    ## 12                                              Sea Launch Platform (mobile)    65  1.0%
    ## 13                                             Wallops Island, Virginia, USA    63  0.9%
    ## 14 UchinouraSpaceCenter(FomerlyKagoshimaSpaceCenter—UniversityofTokyo,Japan)    25  0.4%
    ## 15                                                    Western Range Airspace    22  0.3%
    ## 16                                     Wenchang Satellite Launch Center, PRC    16  0.2%
    ## 17                                        Kodiak Launch Complex, Alaska, USA    14  0.2%
    ## 18                                                    Eastern Range Airspace    13  0.2%
    ## 19                                          Svobodnyy Launch Complex, Russia    13  0.2%
    ## 20                                           US Army Kwajalein Atoll (USAKA)    13  0.2%
    ## # ... with 7 more rows
…
